{
  "soundboards": [
    {
      "id": 1,
      "name": "Jungle Animals",
      "image": "https://img.freepik.com/free-vector/farm-scene-nature-with-barn_1308-32159.jpg"
    },
    {
      "id": 2,
      "name": "Savannah Animals",
      "image": "https://img.freepik.com/free-vector/detailed-jungle-background_23-2148953379.jpg?w=2000"
    }
  ],

  "items": [
    {
      "id": 1,
      "name": "Lion",
      "image": "https://upload.wikimedia.org/wikipedia/commons/thumb/7/73/Lion_waiting_in_Namibia.jpg/1200px-Lion_waiting_in_Namibia.jpg",
      "sound": "Lion.mp3",
      "quote": "roar",
      "soundboardId": 2
    },
    {
      "id": 2,
      "name": "Alligator",
      "image": "https://upload.wikimedia.org/wikipedia/commons/1/1e/Brookfield_zoo_fg06.jpg",
      "sound": "alligator.mp3",
      "quote": "*Alligator sounds*",
      "soundboardId": 1
    },
    {
      "id": 3,
      "name": "Elephant",
      "image": "https://upload.wikimedia.org/wikipedia/commons/thumb/6/63/African_elephant_warning_raised_trunk.jpg/200px-African_elephant_warning_raised_trunk.jpg",
      "sound": "Elefant.mp3",
      "quote": "njeeeh",
      "soundboardId": 1
    },
    {
      "id": 4,
      "name": "Vulture",
      "image": "https://upload.wikimedia.org/wikipedia/commons/7/71/Gyps_fulvus_Ay%C3%B3dar.jpg",
      "sound": "geier.mp3",
      "quote": "*Vulture sounds*",
      "soundboardId": 2
    },
    {
      "id": 5,
      "name": "Gorilla",
      "image": "https://upload.wikimedia.org/wikipedia/commons/5/50/Male_gorilla_in_SF_zoo.jpg",
      "sound": "Gorilla.mp3",
      "quote": "oe oe ah ah",
      "soundboardId": 1
    }
  ]
}
